{
	"db": {
		"host": "inventory-db.cefpctyertqv.ap-south-1.rds.amazonaws.com",
		"username": "admin",
		"password": "inventory",
		"database": "inventory_db"
	},
	"awsAccess": {
		"region": "",
		"cognitoUserPoolId": "",
		"tokenUse": "",
		"tokenExpiration": ""
	}
}
